{"photos":{"page":1,"pages":10,"perpage":100,"total":1000,"photo":[{"id":"28202305594","owner":"31397033@N02","secret":"69c5cbcd0d","server":"8893","farm":9,"title":"England 2016","ispublic":1,"isfriend":0,"isfamily":0,"url_s":"https:\/\/farm9.staticflickr.com\/8893\/28202305594_69c5cbcd0d_m.jpg","height_s":"159","width_s":"240"},{"id":"28202307684","owner":"63907576@N03","secret":"ca8e687657","server":"8431","farm":9,"title":"Todas las fotos-406","ispublic":1,"isfriend":0,"isfamily":0,"url_s":"https:\/\/farm9.staticflickr.com\/8431\/28202307684_ca8e687657_m.jpg","height_s":"180","width_s":"240"},{"id":"28202308434","owner":"84277375@N00","secret":"e338b8fba9","server":"8739","farm":9,"title":"Photo","ispublic":1,"isfriend":0,"isfamily":0,"url_s":"https:\/\/farm9.staticflickr.com\/8739\/28202308434_e338b8fba9_m.jpg","height_s":"240","width_s":"240"},{"id":"28202309314","owner":"120436274@N04","secret":"701df43f4c","server":"8117","farm":9,"title":"#Amazon is offering a year of unlimited online storage. You might have missed the deal.","ispublic":1,"isfriend":0,"isfamily":0,"url_s":"https:\/\/farm9.staticflickr.com\/8117\/28202309314_701df43f4c_m.jpg","height_s":"240","width_s":"240"},{"id":"28202310024","owner":"139878938@N03","secret":"21d1aa7f06","server":"8759","farm":9,"title":"Someone recalls my beautiful memories.","ispublic":1,"isfriend":0,"isfamily":0,"url_s":"https:\/\/farm9.staticflickr.com\/8759\/28202310024_21d1aa7f06_m.jpg","height_s":"240","width_s":"240"},{"id":"28202312784","owner":"67000021@N04","secret":"0d59de7a6b","server":"8891","farm":9,"title":"73663223890041","ispublic":1,"isfriend":0,"isfamily":0,"url_s":"https:\/\/farm9.staticflickr.com\/8891\/28202312784_0d59de7a6b_m.jpg","height_s":"180","width_s":"240"},{"id":"28202315264","owner":"47177648@N00","secret":"e72b02c0ae","server":"8336","farm":9,"title":"Urban think, #graffiti in #Karakoy","ispublic":1,"isfriend":0,"isfamily":0,"url_s":"https:\/\/farm9.staticflickr.com\/8336\/28202315264_e72b02c0ae_m.jpg","height_s":"240","width_s":"240"},{"id":"28202316154","owner":"128388677@N05","secret":"8912a2bb46","server":"8877","farm":9,"title":"","ispublic":1,"isfriend":0,"isfamily":0,"url_s":"https:\/\/farm9.staticflickr.com\/8877\/28202316154_8912a2bb46_m.jpg","height_s":"240","width_s":"180"},{"id":"28202317344","owner":"100790885@N08","secret":"5cf2b8dbf1","server":"8604","farm":9,"title":"DSC_5171","ispublic":1,"isfriend":0,"isfamily":0,"url_s":"https:\/\/farm9.staticflickr.com\/8604\/28202317344_5cf2b8dbf1_m.jpg","height_s":"160","width_s":"240"},{"id":"28202318084","owner":"144847038@N08","secret":"f4cd179e4d","server":"8076","farm":9,"title":"Do\u011fal kaynaklar pazartesi t\u00fckenecek","ispublic":1,"isfriend":0,"isfamily":0,"url_s":"https:\/\/farm9.staticflickr.com\/8076\/28202318084_f4cd179e4d_m.jpg","height_s":"150","width_s":"200"},{"id":"28202319214","owner":"24917258@N05","secret":"db80ba8078","server":"7736","farm":8,"title":"IMG_9094","ispublic":1,"isfriend":0,"isfamily":0,"url_s":"https:\/\/farm8.staticflickr.com\/7736\/28202319214_db80ba8078_m.jpg","height_s":"180","width_s":"240"},{"id":"28202319934","owner":"98305101@N04","secret":"4f90a587e3","server":"8709","farm":9,"title":"image","ispublic":1,"isfriend":0,"isfamily":0,"url_s":"https:\/\/farm9.staticflickr.com\/8709\/28202319934_4f90a587e3_m.jpg","height_s":"180","width_s":"240"},{"id":"28202320554","owner":"131550531@N08","secret":"dcc296eeb1","server":"8561","farm":9,"title":"Dr D K OLUKOYA GENERAL OVERSEER OF MFM WORLD WIDE LIVE TONIGHT on Prayerline 605-562-3155 at 8pm PACIFIC 11pm Eastern   Invite your friends and family   Immediately after the Prayerline join the ongoing 24 hours Radio 712-432-4112  for more DESTINY CHANGI","ispublic":1,"isfriend":0,"isfamily":0,"url_s":"https:\/\/farm9.staticflickr.com\/8561\/28202320554_dcc296eeb1_m.jpg","height_s":"240","width_s":"240"},{"id":"28202322494","owner":"143770769@N08","secret":"527d6b2ab9","server":"8657","farm":9,"title":"SLCC Round 5- Victoria Park Criterium 7th August 2016 (
